,,,,,,,,,,,,,
BoM Name,Level,Product Reference,Product Name,Quantity,Unit of Measure,BoM Reference,Manufacturer,Manufacturer Ref.,Distributor,Distributor Ref.,Distr. UOM,Price per Unit,Price per BoM Qty
LulzBot HS+ Tool Head | Hardened Steel | 1.2 mm,,KT-CP0134,LulzBot HS+ Tool Head | Hardened Steel | 1.2 mm,1,PCE,,,,,,,,
,> ,AS-PK0010,[AS-PK0010] 90 mm wiper pad set,1,"PCE, 90mm, 5 pack",,,,,,,,
,> > ,AS-PR0023,[AS-PR0023] 90mm Cut wiper pad,5,"PCE, 90mm",,,,,,,,
,> > > ,HD-MS0550,"[HD-MS0550] Synthetic Felt Plain Backing, 1"" Wide, 1/4"" Thick - 50 ft",600,inch(es),,,,McMaster-Carr,88085K311,"ft, 50",0.04 USD/inch(es),24.00 USD
,> > > ,RM-AB0105,"[RM-AB0105] Chroma Strand ABS Filament, Black 2.85mm, 5 lb reel ",0.0529,"Reel, 5lb",,,,"Chroma Strand Labs, LLC",,"Reel, 5lb","45.00 USD/Reel, 5lb",2.38 USD
,> > ,SH-PG0002,"[SH-PG0002] 3 x 4"" 2 Mil Reclosable Polypropylene Bags",1,PCE,,,S-1292,Uline,S-1292,"pkg, 1000",0.02 USD/PCE,0.02 USD
,> ,DC-LB0174,[DC-LB0174] P65 Warning Label,1,PCE,,,,Amazon,B07G4KF2P2 ,PCE,13.29 USD/PCE,13.29 USD
,> ,AS-TH0069,"[AS-TH0069] Titan Aero Assembly, HS+ 1.2",1,PCE,,,,,,,,
,> > ,AS-CB0061,[AS-CB0061] Extruder Motor Harness v2Aero,1,PCE,CO0106 10/9/2019,,,CCX Corp.*,,PCE,4.00 USD/PCE,4.00 USD
,> > > ,EL-MS0351,"[EL-MS0351] JST - CONN TERM CRIMP PH 24-30AWG - 8,000 Unit Reel",4,PCE,,JST Sales America,SPH-002T-P0.5S,Future Electronics,,PCE,0.01 USD/PCE,0.05 USD
,> > > ,EL-MS0355,[EL-MS0355] CONN HOUSING PH 6POS 2MM WHITE,1,PCE,,JST Sales America,PHR-6,Future Electronics,PHR-6,PCE,0.04 USD/PCE,0.04 USD
,> > > ,EL-MS0480,[EL-MS0480] CONN TERM MALE 20-24AWG TIN (Micro-Fit 3.0™) 12K REEL,4,PCE,,Molex,0430310001,TTI Global Distribution,43031-0001,PCE,0.02 USD/PCE,0.07 USD
,> > > ,EL-WR0103,[EL-WR0103] 24AWG Stranded – Red,18,cm,,,,Allcable,HU1569247RD,"ft, 1000",0.00 USD/mm,0.01 USD
,> > > ,EL-WR0105,[EL-WR0105] 24AWG Stranded – Black,18,cm,,,,Allcable,HU1569247BK,"ft, 1000",0.00 USD/mm,0.01 USD
,> > > ,EL-WR0107,[EL-WR0107] 24AWG Stranded – White,18,cm,,,,Allcable,HU1569247WE,"ft, 1000",0.00 USD/mm,0.01 USD
,> > > ,EL-WR0119,[EL-WR0119] 24AWG Stranded Wire – Green,18,cm,,,,Allcable,HU1569247GN,"ft, 1000",0.00 USD/mm,0.01 USD
,> > > ,PC-CN0101,[PC-CN0101] CONN PLUG 20POS 3MM VERT DUAL,1,PCE,,Molex,43020-2001,TTI Global Distribution,43020-2001,PCE,0.59 USD/PCE,0.59 USD
,> > ,AS-CB0062,[AS-CB0062] v2Aero Extruder Blower Harness,1,PCE,CO0106 10/9/2019,,,CCX Corp.*,,PCE,16.00 USD/PCE,16.00 USD
,> > > ,EL-FA0047,"[EL-FA0047] RB5015 Series DC Blower, 51 x 51 x 15mm, 24V",1,PCE,,"Pelonis Technologies, Inc.",RBH5015B2,"Pelonis Technologies, Inc.",RBH5015B2,PCE,5.71 USD/PCE,5.71 USD
,> > > ,EL-MS0480,[EL-MS0480] CONN TERM MALE 20-24AWG TIN (Micro-Fit 3.0™) 12K REEL,2,PCE,,Molex,0430310001,TTI Global Distribution,43031-0001,PCE,0.02 USD/PCE,0.04 USD
,> > ,AS-CB0063,[AS-CB0063] v2 Aero Zero Sense Harness,1,PCE,CO0106 10/9/2019,,,CCX Corp.*,,PCE,1.55 USD/PCE,1.55 USD
,> > > ,EL-MS0480,[EL-MS0480] CONN TERM MALE 20-24AWG TIN (Micro-Fit 3.0™) 12K REEL,1,PCE,,Molex,0430310001,TTI Global Distribution,43031-0001,PCE,0.02 USD/PCE,0.02 USD
,> > > ,EL-MS0141,[EL-MS0141] Term Ring Non Ins 26-22AWG #4  Order Bulk Only,1,PCE,,Panduit,P22-4R-M,TTI Global Distribution,P22-4R-M,PCE,0.06 USD/PCE,0.06 USD
,> > > ,EL-WR0040,"[EL-WR0040] Wire - Single Conductor 20AWG SOLID PTFE, RED ",24,cm,,Thermax,M16878/4BGA-2,Hardware Speciality,,"ft, 500",0.00 USD/mm,0.24 USD
,> > ,AS-CB0064,[AS-CB0064] v2Aero Heatsink Fan Harness,1,PCE,CO0106 10/9/2019,,,CCX Corp.*,,PCE,9.00 USD/PCE,9.00 USD
,> > > ,EL-FA0034,[EL-FA0034] Pelonis FAN 5V 40x40x10mm Low flow,1,PCE,,"Pelonis Technologies, Inc.",C4010L05BPLB1b-7 ,"Pelonis Technologies, Inc.",C4010L05BPLB1b-7,PCE,3.41 USD/PCE,3.41 USD
,> > > ,EL-MS0480,[EL-MS0480] CONN TERM MALE 20-24AWG TIN (Micro-Fit 3.0™) 12K REEL,2,PCE,,Molex,0430310001,TTI Global Distribution,43031-0001,PCE,0.02 USD/PCE,0.04 USD
,> > ,AS-CB0066,[AS-CB0066] v2Aero Thermistor Harness,1,PCE,CO0106 10/9/2019,,,CCX Corp.*,,PCE,12.00 USD/PCE,12.00 USD
,> > > ,EL-MS0059,[EL-MS0059] Molex-CONN TERM FEMALE 22-24AWG TIN Reels of 20K,2,PCE,,Molex,16-02-0086 ,TTI Global Distribution,16-02-0086,PCE,0.02 USD/PCE,0.03 USD
,> > > ,EL-MS0480,[EL-MS0480] CONN TERM MALE 20-24AWG TIN (Micro-Fit 3.0™) 12K REEL,2,PCE,,Molex,0430310001,TTI Global Distribution,43031-0001,PCE,0.02 USD/PCE,0.04 USD
,> > > ,EL-WR0103,[EL-WR0103] 24AWG Stranded – Red,12,cm,,,,Allcable,HU1569247RD,"ft, 1000",0.00 USD/mm,0.01 USD
,> > > ,EL-WR0105,[EL-WR0105] 24AWG Stranded – Black,12,cm,,,,Allcable,HU1569247BK,"ft, 1000",0.00 USD/mm,0.01 USD
,> > > ,PC-CN0001,[PC-CN0001]  Molex-Conn Housing 2POS .100 W/Latch,1,PCE,,Molex,050579402,TTI Global Distribution,050579402,PCE,0.05 USD/PCE,0.05 USD
,> > ,AS-HE0033,[AS-HE0033] HS+ 1.2 Hotend Assembly,1,PCE,CO0106 10/9/2019,,,,,,,
,> > > ,AS-HE0029,"[AS-HE0029] HS+ E3D Aero Hot End 3.0mm, 1.2mm Nozzle, Hot Tightened, Pre-Assembled",1,PCE,,E3D-online,CC-AO-TITAN-AERO-VOL-1200-AS,E3D-online,CC-AO-TITAN-AERO-VOL-1200-AS,PCE,48.66 USD/PCE,48.66 USD
,> > > ,EL-MS0480,[EL-MS0480] CONN TERM MALE 20-24AWG TIN (Micro-Fit 3.0™) 12K REEL,2,PCE,,Molex,0430310001,TTI Global Distribution,43031-0001,PCE,0.02 USD/PCE,0.04 USD
,> > ,PP-IS0069,[PP-IS0069] HS 0.8/HS+ 1.2 Blower Shroud with Inserts,1,PCE,CO0106 10/9/2019,,,,,,,
,> > > ,PP-GP0344,[PP-GP0344] HS 0.8/HS+ 1.2 Blower Shroud,1,PCE,,,,,,,,
,> > > > ,RM-AB0105,"[RM-AB0105] Chroma Strand ABS Filament, Black 2.85mm, 5 lb reel ",0.0106,"Reel, 5lb",,,,"Chroma Strand Labs, LLC",,"Reel, 5lb","45.00 USD/Reel, 5lb",0.48 USD
,> > > ,HD-MS0030,"[HD-MS0030] Metric Brass Heat-Set Tapered Insert, M3-.5 Internal Thread, 3.8mm Length",1,PCE,,,,Aero-Space Fasteners and Hardware (formerly Colorado Electronic Hardware), PEM IUBB-M3-1,PCE,0.04 USD/PCE,0.04 USD
,> > ,PP-IS0074,"[PP-IS0074] Extruder Mount with Inserts, HS+ 1.2",1,PCE,CO0106 10/9/2019,,,,,,,
,> > > ,PP-GP0353,"[PP-GP0353] Extruder Mount, HS+ 1.2",1,PCE,,,,,,,,
,> > > > ,RM-AB0106,"[RM-AB0106] Chroma Strand ABS Filament, Hammer Gray 2.85mm, 5lb Reel",0.0148,"Reel, 5lb",,,,"Chroma Strand Labs, LLC",,"Reel, 5lb","45.00 USD/Reel, 5lb",0.67 USD
,> > > ,HD-MS0030,"[HD-MS0030] Metric Brass Heat-Set Tapered Insert, M3-.5 Internal Thread, 3.8mm Length",3,PCE,,,,Aero-Space Fasteners and Hardware (formerly Colorado Electronic Hardware), PEM IUBB-M3-1,PCE,0.04 USD/PCE,0.11 USD
,> > ,DC-LB0094,"[DC-LB0094] Serial number label sheets (blank) 100/pk  105 up - 1.25"" x 0.375""  ",1,PCE,CO0106 10/9/2019,,,Onlinelabels.com,OL910WX,"pkg, 10500",0.01 USD/PCE,0.01 USD
,> > ,DC-LB0164,"[DC-LB0164] Caution Hot Symbol Size, 1.2mm",1,PCE,CO0106 10/9/2019,,,,,,,
,> > ,EL-MT0029,"[EL-MT0029] NEMA 17 Stepper Motor, Moons'  -  NOT INCLUDING wire harness",1,PCE,CO0106 10/9/2019,,MS17HD6P4150-01-B,"Moons' Industries (America), Inc. ",MS17HD6P4150-01-B,PCE,8.30 USD/PCE,8.30 USD
,> > ,HD-BT0039,"[HD-BT0039] Metric Class 12.9 Socket Head Cap Screw, Alloy Steel, M3 Thread, 12MM Length, 0.50MM Pitch",4,PCE,CO0106 10/9/2019,,39505,Hardware Speciality,DIN912-12.9-3-12,PCE,0.02 USD/PCE,0.09 USD
,,,,,,,,,Hardware Speciality (DO NOT USE),,PCE,0.02 USD/PCE,0.09 USD
,> > ,HD-BT0042,"[HD-BT0042] Metric Class 12.9 Socket Head Cap Screw, Alloy Steel, M3 Thread, 30MM Length, 0.50MM Pitch",1,PCE,CO0106 10/9/2019,,,Hardware Speciality,DIN912-12.9-3-30,PCE,0.03 USD/PCE,0.03 USD
,> > ,HD-BT0043,"[HD-BT0043] Metric Class 12.9 Socket Head Cap Screw, Alloy Steel, M3 Thread, 35MM Length, 0.50MM Pitch",3,PCE,CO0106 10/9/2019,,,Hardware Speciality,DIN912-12.9-3-35,PCE,0.04 USD/PCE,0.13 USD
,> > ,HD-BT0146,"[HD-BT0146] M3 x 12 BHCS, Black Oxide, Class 10.9 Steel",2,PCE,CO0106 10/9/2019,,,Hardware Speciality,ISO7380-10.9-3-12,PCE,0.02 USD/PCE,0.05 USD
,,,,,,,,,Hardware Speciality (DO NOT USE),,PCE,0.02 USD/PCE,0.05 USD
,> > ,HD-BT0171,"[HD-BT0171] Black Oxide Class 10.9 Steel Button-Head Socket Cap Screw M3 Size, 20 mm Length, .5 mm Pitch, pkg 100 ",2,PCE,CO0106 10/9/2019,,,Hardware Speciality,ISO7380-10.9-3-20,PCE,0.04 USD/PCE,0.08 USD
,> > ,HD-BT0197,[HD-BT0197] M4 Thumb Screw for Aero,1,PCE,CO0106 10/9/2019,E3D-online,TITAN-THUMBWHEEL,E3D-online,TITAN-THUMBWHEEL,PCE,1.82 USD/PCE,1.82 USD
,> > ,HD-MS0430,"[HD-MS0430] E3D, Idler Spring for Aero",1,PCE,CO0106 10/9/2019,E3D-online,TITAN-Spring,E3D-online,TITAN-SPRING,PCE,0.25 USD/PCE,0.25 USD
,> > ,HD-MS0446,[HD-MS0446] MR95-2RS Radial Ball Bearing Double Sealed Bore Dia. 5mm OD 9mm Width 3mm,2,PCE,CO0106 10/9/2019,,,JSB Great Bearings,,PCE,0.45 USD/PCE,0.90 USD
,> > ,HD-NT0011,"[HD-NT0011] M4 Nut, Steel, Zinc Plated",1,PCE,CO0106 10/9/2019,,40303,Fastenal,40303,PCE,0.01 USD/PCE,0.01 USD
,> > ,HD-WA0027,"[HD-WA0027] Metric 18-8 Stainless Steel Internal-Tooth Lock Washer, M3 Screw Size, 6MM OD, .4MM Min Thick",1,PCE,CO0106 10/9/2019,,WF6330000A20000,Fastenal,WF6330000A20000,PCE,0.01 USD/PCE,0.01 USD
,> > ,HD-WA0038,"[HD-WA0038] Black-Oxide 18-8 Steel Flat Washer, M3 Screw Size, 3.2mm ID, 7.0mm OD",2,PCE,CO0106 10/9/2019,,,Hardware Speciality,DIN125A-A2-3BL,PCE,0.01 USD/PCE,0.02 USD
,> > ,PP-FP0135,[PP-FP0135] E3D Mirrored Aero Idler Lever,1,PCE,CO0106 10/9/2019,E3D-online,TITAN-IDLER-2.2,E3D-online,TITAN-IDLER-LH,PCE,4.36 USD/PCE,4.36 USD
,> > ,PP-FP0136,[PP-FP0136] E3D Mirrored Aero 2.85mm Filament Guide,1,PCE,CO0106 10/9/2019,E3D-online,TITAN-PTFE-HOLDER-300-LH,E3D-online,TITAN-PTFE-HOLDER-300-LH,PCE,0.16 USD/PCE,0.16 USD
,> > ,PP-FP0154,[PP-FP0154] Titan Extruder Hobb (Hardened Stainless Steel) - Frosted,1,PCE,CO0106 10/9/2019,E3D-online,TITAN-HOBB-HS,E3D-online,TITAN-HOBB-HS,PCE,18.64 USD/PCE,18.64 USD
,> > ,PP-MP0204,[PP-MP0204] Aero Mirrored Body w/ Threaded Insert,1,PCE,CO0106 10/9/2019,E3D-online,TITAN-BODY-LH,E3D-online,TITAN-BODY-LH,PCE,0.74 USD/PCE,0.74 USD
,> > ,PP-MP0282,"[PP-MP0282] E3D, V3 Aero Steel Pinion Gear w/ Set Screw",1,PCE,CO0106 10/9/2019,,,E3D-online,CC-AO-TITAN-GEAR-SMALL-250,PCE,0.98 USD/PCE,0.98 USD
,> ,DC-LB0165,"[DC-LB0165] HS+ 1.2 Tool Head Label, Front",1,PCE,,,,,,,,
,> ,DC-LB0166,"[DC-LB0166] HS+ 1.2 Tool Head Label, Back",1,PCE,,,,,,,,
,> ,DC-MS0037,[DC-MS0037] Colorado Made Green Sticker,1,PCE,,,,Sticker Giant,,PCE,0.06 USD/PCE,0.06 USD
,> ,DC-MS0054,[DC-MS0054] Firmware Update Warning Cards,1,PCE,,,,THE PRINT SHOP OF LOVELAND LLC (FORMERLY LIGHT SPEED COLOR),,PCE,0.08 USD/PCE,0.08 USD
,> ,DC-MS0060,[DC-MS0060] CONGRATULATIONS!- Accessory Instruction Card,1,PCE,,,,Coren Printing Inc.,,PCE,0.10 USD/PCE,0.10 USD
,> ,PP-GP0398,[PP-GP0398] HS/HS+ Double Wiper Pad Mount,1,PCE,,,,,,,,
,> > ,RM-AB0105,"[RM-AB0105] Chroma Strand ABS Filament, Black 2.85mm, 5 lb reel ",0.0037,"Reel, 5lb",,,,"Chroma Strand Labs, LLC",,"Reel, 5lb","45.00 USD/Reel, 5lb",0.17 USD
,> ,RM-PE0015,"[RM-PE0015] IC3D PETg Sample Pack, 65g",1,PCE,,,,IC3D LLC,,PCE,3.95 USD/PCE,3.95 USD
,> ,SH-BX0088,"[SH-BX0088] Accessory Tool Head Box: 9-1/2 x 7 x 3-7/8 Die Cut, 32 ECT, B Flute, Kraft, White",1,PCE,,"Preferred Packaging Products, Inc. ",3080K,"Preferred Packaging Products, Inc. ",,PCE,2.38 USD/PCE,2.38 USD
,> ,SH-PA0049,[SH-PA0049] Korrvu Medium Retention Pack for Standard Tool Heads,1,PCE,,,US29807N00,"Preferred Packaging Products, Inc. ",US29807N00,PCE,2.17 USD/PCE,2.17 USD
,> ,SH-PG0025,"[SH-PG0025] 5 x 8"" 2 Mil Reclosable Bags, 1000/carton",1,PCE,,,,"Preferred Packaging Products, Inc. ",F20508,PCE,0.02 USD/PCE,0.02 USD
,> ,SH-PG0131,"[SH-PG0131] #260 White Reinforced Gummed Tape with LulzBot Printed Logo, 10 Pack",304.8,mm,,"Preferred Packaging Products, Inc. ",0815,"Preferred Packaging Products, Inc. ",0815,Roll 450' - 10pk,0.00 USD/mm,0.04 USD
,> ,TL-CS0255,"[TL-CS0255] Scotch Brite Maroon Pad, 2""X 3""",1,PCE,,,,,,,,
,> > ,TL-MS0568,"[TL-MS0568] Abrasive Roll, 2"" W x 30 ft. L Roll - Maroon",76.2,mm,,,,Zoro Tools,G1446654,"ft, 30",0.00 USD/mm,0.25 USD
,,,,,,,,,,,,Total BoM Price:,145.89 USD
